…
- most commonly observed values for snowfall

``` r
common_snowfall = ny_noaa |> 
  count(snow) |> 
  arrange(desc(n))

print(common_snowfall)
```

    ## # A tibble: 282 × 2
    ##     snow       n
    ##    <dbl>   <int>
    ##  1   0   2008508
    ##  2  NA    381221
    ##  3   2.5   31022
    ##  4   1.3   23095
    ##  5   5.1   18274
    ##  6   7.6   10173
    ##  7   0.8    9962
    ##  8   0.5    9748
    ##  9   3.8    9197
    ## 10   0.3    8790
    ## # ℹ 272 more rows
…
``` r
accelerometer_df = accelerometer_df |> 
  janitor::clean_names()
```

merge the data sets

``` r
merge_df = left_join(demographic_df, accelerometer_df, by = "seqn")
print(merge_df)
```

    ## # A tibble: 228 × 1,445
    ##     seqn sex      age   bmi education     min1   min2   min3  min4   min5   min6
    ##    <dbl> <chr>  <dbl> <dbl> <fct>        <dbl>  <dbl>  <dbl> <dbl>  <dbl>  <dbl>
    ##  1 62161 male      22  23.3 high school… 1.11  3.12   1.47   0.938 1.60   0.145 
    ##  2 62164 female    44  23.2 more than h… 1.92  1.67   2.38   0.935 2.59   5.22  
    ##  3 62169 male      21  20.1 high school… 5.85  5.18   4.76   6.48  6.85   7.24  
    ##  4 62174 male      80  33.9 more than h… 5.42  3.48   3.72   3.81  6.85   4.45  
    ##  5 62177 male      51  20.1 high school… 6.14  8.06   9.99   6.60  4.57   2.78  
    ##  6 62178 male      80  28.5 high school… 0.167 0.429  0.131  1.20  0.0796 0.0487
    ##  7 62180 male      35  27.9 more than h… 0.039 0      0      0     0.369  0.265 
    ##  8 62184 male      26  22.1 high school… 1.55  2.81   3.86   4.76  6.10   7.61  
    ##  9 62189 female    30  22.4 more than h… 2.81  0.195  0.163  0     0.144  0.180 
    ## 10 62199 male      57  28   more than h… 0.031 0.0359 0.0387 0.079 0.109  0.262 
    ## # ℹ 218 more rows
    ## # ℹ 1,434 more variables: min7 <dbl>, min8 <dbl>, min9 <dbl>, min10 <dbl>,
    ## #   min11 <dbl>, min12 <dbl>, min13 <dbl>, min14 <dbl>, min15 <dbl>,
    ## #   min16 <dbl>, min17 <dbl>, min18 <dbl>, min19 <dbl>, min20 <dbl>,
    ## #   min21 <dbl>, min22 <dbl>, min23 <dbl>, min24 <dbl>, min25 <dbl>,
    ## #   min26 <dbl>, min27 <dbl>, min28 <dbl>, min29 <dbl>, min30 <dbl>,
    ## #   min31 <dbl>, min32 <dbl>, min33 <dbl>, min34 <dbl>, min35 <dbl>, …
…
plot total activity against age

``` r
start_col = which(names(merge_df) == "min1")
end_col = which(names(merge_df) == "min1440")
numeric_cols_to_sum = names(merge_df)[start_col:end_col]
merge_df$total_activity = rowSums(merge_df[numeric_cols_to_sum])
print(merge_df)
```

    ## # A tibble: 228 × 1,446
    ##     seqn sex      age   bmi education     min1   min2   min3  min4   min5   min6
    ##    <dbl> <chr>  <dbl> <dbl> <fct>        <dbl>  <dbl>  <dbl> <dbl>  <dbl>  <dbl>
    ##  1 62161 male      22  23.3 high school… 1.11  3.12   1.47   0.938 1.60   0.145 
    ##  2 62164 female    44  23.2 more than h… 1.92  1.67   2.38   0.935 2.59   5.22  
    ##  3 62169 male      21  20.1 high school… 5.85  5.18   4.76   6.48  6.85   7.24  
    ##  4 62174 male      80  33.9 more than h… 5.42  3.48   3.72   3.81  6.85   4.45  
    ##  5 62177 male      51  20.1 high school… 6.14  8.06   9.99   6.60  4.57   2.78  
    ##  6 62178 male      80  28.5 high school… 0.167 0.429  0.131  1.20  0.0796 0.0487
    ##  7 62180 male      35  27.9 more than h… 0.039 0      0      0     0.369  0.265 
    ##  8 62184 male      26  22.1 high school… 1.55  2.81   3.86   4.76  6.10   7.61  
    ##  9 62189 female    30  22.4 more than h… 2.81  0.195  0.163  0     0.144  0.180 
    ## 10 62199 male      57  28   more than h… 0.031 0.0359 0.0387 0.079 0.109  0.262 
    ## # ℹ 218 more rows
    ## # ℹ 1,435 more variables: min7 <dbl>, min8 <dbl>, min9 <dbl>, min10 <dbl>,
    ## #   min11 <dbl>, min12 <dbl>, min13 <dbl>, min14 <dbl>, min15 <dbl>,
    ## #   min16 <dbl>, min17 <dbl>, min18 <dbl>, min19 <dbl>, min20 <dbl>,
    ## #   min21 <dbl>, min22 <dbl>, min23 <dbl>, min24 <dbl>, min25 <dbl>,
    ## #   min26 <dbl>, min27 <dbl>, min28 <dbl>, min29 <dbl>, min30 <dbl>,
    ## #   min31 <dbl>, min32 <dbl>, min33 <dbl>, min34 <dbl>, min35 <dbl>, …
…
  mutate(year = 2020, month = 1) |> 
  mutate(weekdays = case_when(
    weekdays == "Monday" ~ 1,
    weekdays == "Tuesday" ~ 2,
    weekdays == "Wednesday" ~ 3,
    weekdays == "Thursday" ~ 4,
    weekdays == "Friday" ~ 5,
    weekdays == "Saturday" ~ 6,
    weekdays == "Sunday" ~ 7)) |> 
  filter(duration <= 240) |> 
  select(ride_id, member_casual, year, month, everything())
print(citi_jan_2020_df)
```

    ## # A tibble: 12,398 × 9
    ##    ride_id          member_casual  year month rideable_type weekdays duration
    ##    <chr>            <chr>         <dbl> <dbl> <chr>            <dbl>    <dbl>
    ##  1 4BE06CB33B037044 member         2020     1 classic_bike         2    15.3 
    ##  2 26886E034974493B member         2020     1 classic_bike         3     5.31
    ##  3 24DC56060EBE6260 member         2020     1 classic_bike         5     9.69
    ##  4 EEDC1053582D02E5 member         2020     1 classic_bike         7     7.00
    ##  5 2CD4BD4CEE2E50A9 member         2020     1 classic_bike         5     2.85
    ##  6 E18682F9A4E501BB member         2020     1 classic_bike         7    25.5 
    ##  7 B9B2E8960A71A284 member         2020     1 classic_bike         7     3.65
    ##  8 DEF8F50495E64691 member         2020     1 classic_bike         7    38.3 
    ##  9 17D44DA993F32573 member         2020     1 classic_bike         4    38.5 
    ## 10 0FD113A309327E8C member         2020     1 classic_bike         2     6.52
    ## # ℹ 12,388 more rows
    ## # ℹ 2 more variables: start_station_name <chr>, end_station_name <chr>
…
  mutate(year = 2024, month = 1) |> 
  mutate(weekdays = case_when(
    weekdays == "Monday" ~ 1,
    weekdays == "Tuesday" ~ 2,
    weekdays == "Wednesday" ~ 3,
    weekdays == "Thursday" ~ 4,
    weekdays == "Friday" ~ 5,
    weekdays == "Saturday" ~ 6,
    weekdays == "Sunday" ~ 7)) |> 
  filter(duration <= 240) |> 
  select(ride_id, member_casual, year, month, everything())
print(citi_jan_2024_df)
```

    ## # A tibble: 18,799 × 9
    ##    ride_id          member_casual  year month rideable_type weekdays duration
    ##    <chr>            <chr>         <dbl> <dbl> <chr>            <dbl>    <dbl>
    ##  1 644A0105ACA27B15 member         2024     1 electric_bike        3    16.5 
    ##  2 A5A8C0AD18EDA2C0 member         2024     1 electric_bike        3     6.29
    ##  3 B392CE3496831A89 member         2024     1 electric_bike        2     6.12
    ##  4 33756EDC77800B6A member         2024     1 electric_bike        3    10.9 
    ##  5 29D9AF64D6593D9B member         2024     1 electric_bike        4     8.42
    ##  6 C7E61191A30649D5 member         2024     1 electric_bike        7    18.5 
    ##  7 947A4F86ED40F657 member         2024     1 electric_bike        7     3.45
    ##  8 0AD92E71246A2548 casual         2024     1 electric_bike        1    14.9 
    ##  9 CE2C128DB7D3B534 member         2024     1 electric_bike        5     9.55
    ## 10 DAAB66B114F1689C member         2024     1 electric_bike        7     4.87
    ## # ℹ 18,789 more rows
    ## # ℹ 2 more variables: start_station_name <chr>, end_station_name <chr>
…
  mutate(year = 2020, month = 7) |> 
  mutate(weekdays = case_when(
    weekdays == "Monday" ~ 1,
    weekdays == "Tuesday" ~ 2,
    weekdays == "Wednesday" ~ 3,
    weekdays == "Thursday" ~ 4,
    weekdays == "Friday" ~ 5,
    weekdays == "Saturday" ~ 6,
    weekdays == "Sunday" ~ 7)) |> 
  filter(duration <= 240) |> 
  select(ride_id, member_casual, year, month, everything())
print(citi_july_2020_df)
```

    ## # A tibble: 21,013 × 9
    ##    ride_id          member_casual  year month rideable_type weekdays duration
    ##    <chr>            <chr>         <dbl> <dbl> <chr>            <dbl>    <dbl>
    ##  1 A7503F194A7CB244 member         2020     7 classic_bike         7     9.86
    ##  2 B47EBE0EA71E3275 member         2020     7 classic_bike         1     8.29
    ##  3 8146F6C6855338C8 member         2020     7 classic_bike         3     5.39
    ##  4 D49560E3308D2128 member         2020     7 classic_bike         6    19.2 
    ##  5 87687AAE400824DE member         2020     7 classic_bike         2    26.4 
    ##  6 E30DFCD98462C9F9 casual         2020     7 classic_bike         7    51.9 
    ##  7 0C53CC4645259D32 casual         2020     7 classic_bike         2    15.7 
    ##  8 34B0268510C0DAF0 member         2020     7 classic_bike         3     8.39
    ##  9 1537706795882483 member         2020     7 classic_bike         2     5.56
    ## 10 A834D6A09893E5E6 member         2020     7 classic_bike         3    14.3 
    ## # ℹ 21,003 more rows
    ## # ℹ 2 more variables: start_station_name <chr>, end_station_name <chr>
…
  mutate(year = 2024, month = 7) |> 
  mutate(weekdays = case_when(
    weekdays == "Monday" ~ 1,
    weekdays == "Tuesday" ~ 2,
    weekdays == "Wednesday" ~ 3,
    weekdays == "Thursday" ~ 4,
    weekdays == "Friday" ~ 5,
    weekdays == "Saturday" ~ 6,
    weekdays == "Sunday" ~ 7)) |> 
  filter(duration <= 240) |> 
  select(ride_id, member_casual, year, month, everything())
print(citi_july_2024_df)
```

    ## # A tibble: 47,043 × 9
    ##    ride_id          member_casual  year month rideable_type weekdays duration
    ##    <chr>            <chr>         <dbl> <dbl> <chr>            <dbl>    <dbl>
    ##  1 86AE148E36FBF035 casual         2024     7 classic_bike         7    19.7 
    ##  2 FCF07A30F66B9B07 casual         2024     7 electric_bike        4     7.68
    ##  3 D8397E843C06644D member         2024     7 classic_bike         4    24.5 
    ##  4 E575690C13424E8C member         2024     7 electric_bike        2     3.53
    ##  5 184AABED46DCE11A casual         2024     7 electric_bike        3    24.1 
    ##  6 ACA61A92B5EA0D11 member         2024     7 classic_bike         6     7.83
    ##  7 C48F946C8105F570 member         2024     7 classic_bike         7     4.85
    ##  8 F3072F6E661ADC41 member         2024     7 classic_bike         6     4.33
    ##  9 8A28359430921ACC member         2024     7 electric_bike        4    12.6 
    ## 10 EFFCEE4CF0ADEF05 casual         2024     7 electric_bike        5    10.6 
    ## # ℹ 47,033 more rows
    ## # ℹ 2 more variables: start_station_name <chr>, end_station_name <chr>
…
